<?xml version="1.0" encoding="utf-8"?>
<!-- Generator: Adobe Illustrator 23.1.1, SVG Export Plug-In . SVG Version: 6.00 Build 0)  -->
<svg version="1.1" id="Layer_1" xmlns="http://www.w3.org/2000/svg" xmlns:xlink="http://www.w3.org/1999/xlink" x="0px" y="0px"
	 viewBox="0 0 80 80" enable-background="new 0 0 80 80" xml:space="preserve">
<g transform="translate(-6.326-174.75)">
	<path fill="#FCA327" d="M46.5,178.8c-0.7,0-1.3,0.2-1.9,0.5l-26.1,12.5c-1.4,0.7-2.4,1.9-2.7,3.4l-6.5,28.1
		c-0.3,1.3-0.1,2.7,0.7,3.8c0.1,0.1,0.2,0.3,0.3,0.4l18.1,22.5c0.9,1.2,2.4,1.9,3.9,1.9l29,0c1.5,0,3-0.7,3.9-1.9l18.1-22.5
		c0.9-1.2,1.3-2.7,1-4.2l-6.5-28.1c-0.3-1.5-1.3-2.7-2.7-3.4L49,179.2C48.2,178.9,47.4,178.7,46.5,178.8"/>
	<path fill="#FFFFFF" stroke="#FFFFFF" stroke-width="0.1824" d="M46.8,188.3c-0.9,0-1.6,0.8-1.6,1.7c0,0,0,0,0,0c0,0.1,0,0.3,0,0.4
		c0,0.6,0.1,1,0.2,1.5c0.1,1.1,0.2,2,0.2,2.8c-0.1,0.3-0.3,0.6-0.5,0.8l0,0.7c-0.9,0.1-1.9,0.2-2.8,0.4c-4.1,0.9-7.6,3-10.2,5.8
		c-0.2-0.1-0.5-0.3-0.6-0.4c-0.3,0-0.6,0.1-0.9-0.1c-0.7-0.5-1.3-1.1-2.1-1.9c-0.4-0.4-0.6-0.7-1-1.1c-0.1-0.1-0.2-0.2-0.3-0.3
		c-0.3-0.3-0.7-0.4-1.1-0.4c-0.5,0-0.9,0.2-1.2,0.6c-0.5,0.7-0.4,1.7,0.4,2.3c0,0,0,0,0,0c0.1,0.1,0.2,0.2,0.3,0.3
		c0.4,0.3,0.9,0.5,1.3,0.8c0.9,0.6,1.7,1.1,2.3,1.6c0.2,0.3,0.3,0.7,0.3,0.9l0.5,0.4c-2.7,4-3.9,9-3.2,14.1l-0.7,0.2
		c-0.2,0.2-0.4,0.6-0.7,0.7c-0.8,0.3-1.7,0.3-2.8,0.5c-0.5,0-1,0-1.5,0.1c-0.1,0-0.3,0.1-0.4,0.1c0,0,0,0,0,0c0,0,0,0,0,0
		c-0.9,0.2-1.5,1.1-1.3,1.9s1.1,1.3,2,1.1c0,0,0,0,0,0c0,0,0,0,0,0c0.1,0,0.3-0.1,0.4-0.1c0.5-0.1,0.9-0.4,1.4-0.5
		c1-0.4,1.9-0.7,2.7-0.8c0.3,0,0.7,0.2,0.9,0.3l0.7-0.1c1.6,4.9,4.9,8.8,9,11.3l-0.3,0.7c0.1,0.3,0.2,0.6,0.1,0.9
		c-0.3,0.8-0.8,1.6-1.4,2.5c-0.3,0.4-0.6,0.8-0.8,1.3c-0.1,0.1-0.1,0.3-0.2,0.4c-0.4,0.9-0.1,1.9,0.7,2.2c0.8,0.4,1.7,0,2.2-0.9
		c0,0,0,0,0,0c0,0,0,0,0,0c0.1-0.1,0.1-0.3,0.2-0.4c0.2-0.5,0.3-0.9,0.5-1.4c0.4-1,0.6-2.1,1.2-2.8c0.2-0.2,0.4-0.3,0.7-0.3l0.4-0.6
		c3.6,1.4,7.7,1.8,11.8,0.8c0.9-0.2,1.8-0.5,2.7-0.8c0.1,0.2,0.3,0.5,0.3,0.6c0.3,0.1,0.6,0.1,0.8,0.5c0.4,0.7,0.7,1.6,1.1,2.6
		c0.2,0.5,0.2,0.9,0.5,1.4c0.1,0.1,0.1,0.3,0.2,0.4c0.4,0.9,1.4,1.3,2.2,0.9c0.8-0.4,1.1-1.4,0.7-2.2c-0.1-0.1-0.1-0.3-0.2-0.4
		c-0.3-0.5-0.6-0.8-0.8-1.2c-0.6-0.9-1.1-1.7-1.4-2.5c-0.1-0.4,0-0.7,0.1-0.9c-0.1-0.1-0.2-0.5-0.3-0.6c4.3-2.6,7.5-6.6,9-11.3
		c0.2,0,0.6,0.1,0.7,0.1c0.2-0.2,0.5-0.4,0.9-0.3c0.8,0.1,1.7,0.4,2.7,0.8c0.5,0.2,0.9,0.4,1.4,0.5c0.1,0,0.3,0.1,0.4,0.1
		c0,0,0,0,0,0c0,0,0,0,0,0c0.9,0.2,1.8-0.3,2-1.1c0.2-0.8-0.4-1.7-1.3-1.9c-0.1,0-0.3-0.1-0.5-0.1c-0.5-0.1-1-0.1-1.5-0.1
		c-1.1-0.1-2-0.2-2.8-0.5c-0.3-0.1-0.6-0.5-0.7-0.7l-0.6-0.2c0.3-2.4,0.2-4.8-0.3-7.3c-0.6-2.5-1.6-4.8-2.9-6.8
		c0.2-0.1,0.5-0.4,0.6-0.5c0-0.3,0-0.6,0.3-0.9c0.6-0.6,1.4-1.1,2.3-1.6c0.4-0.3,0.9-0.4,1.3-0.8c0.1-0.1,0.2-0.2,0.3-0.3
		c0.8-0.6,0.9-1.6,0.4-2.3c-0.5-0.7-1.6-0.7-2.3-0.1c-0.1,0.1-0.3,0.2-0.3,0.3c-0.4,0.4-0.7,0.7-1,1.1c-0.8,0.8-1.4,1.4-2.1,1.9
		c-0.3,0.2-0.7,0.1-0.9,0.1l-0.6,0.4c-3.4-3.6-8-5.8-13-6.3c0-0.2,0-0.6,0-0.7c-0.2-0.2-0.4-0.4-0.5-0.8c-0.1-0.8,0-1.7,0.2-2.8
		c0.1-0.5,0.2-0.9,0.2-1.5c0-0.1,0-0.3,0-0.4C48.4,189.1,47.7,188.3,46.8,188.3L46.8,188.3z M44.8,200.4l-0.5,8.2l0,0
		c0,0.7-0.6,1.3-1.4,1.3c-0.3,0-0.6-0.1-0.8-0.3l0,0l-6.7-4.8c2.1-2,4.7-3.5,7.8-4.2C43.7,200.6,44.3,200.5,44.8,200.4z M48.8,200.4
		c3.6,0.4,6.9,2,9.4,4.5l-6.7,4.7l0,0c-0.6,0.4-1.4,0.3-1.9-0.3c-0.2-0.2-0.3-0.5-0.3-0.8l0,0L48.8,200.4L48.8,200.4z M33,208
		l6.1,5.5l0,0c0.6,0.5,0.6,1.3,0.2,1.9c-0.2,0.2-0.4,0.4-0.7,0.5l0,0l-7.9,2.3C30.3,214.6,31.1,211,33,208z M60.6,208
		c0.9,1.5,1.6,3.1,2,4.9c0.4,1.8,0.5,3.5,0.3,5.2l-7.9-2.3l0,0c-0.7-0.2-1.1-0.9-1-1.6c0.1-0.3,0.2-0.5,0.4-0.7l0,0L60.6,208
		L60.6,208z M45.5,214h2.5l1.6,2l-0.6,2.4l-2.3,1.1l-2.3-1.1l-0.6-2.4L45.5,214z M53.6,220.6c0.1,0,0.2,0,0.3,0l0,0l8.1,1.4
		c-1.2,3.4-3.5,6.3-6.5,8.2l-3.2-7.6l0,0c-0.3-0.7,0-1.5,0.7-1.8C53.2,220.7,53.4,220.7,53.6,220.6L53.6,220.6z M39.9,220.7
		c0.6,0,1.2,0.4,1.3,1.1c0.1,0.3,0,0.6-0.1,0.8l0,0l-3.1,7.6c-2.9-1.9-5.3-4.7-6.5-8.1l8.1-1.4l0,0
		C39.7,220.7,39.8,220.7,39.9,220.7L39.9,220.7z M46.7,224c0.2,0,0.4,0,0.6,0.1c0.3,0.1,0.5,0.3,0.6,0.6h0l4,7.2
		c-0.5,0.2-1,0.3-1.6,0.4c-3,0.7-6.1,0.5-8.8-0.5l4-7.2h0C45.8,224.3,46.3,224,46.7,224L46.7,224z"/>
</g>
</svg>
